\relax 
\providecommand\hyper@newdestlabel[2]{}
\providecommand\HyperFirstAtBeginDocument{\AtBeginDocument}
\HyperFirstAtBeginDocument{\ifx\hyper@anchor\@undefined
\global\let\oldcontentsline\contentsline
\gdef\contentsline#1#2#3#4{\oldcontentsline{#1}{#2}{#3}}
\global\let\oldnewlabel\newlabel
\gdef\newlabel#1#2{\newlabelxx{#1}#2}
\gdef\newlabelxx#1#2#3#4#5#6{\oldnewlabel{#1}{{#2}{#3}}}
\AtEndDocument{\ifx\hyper@anchor\@undefined
\let\contentsline\oldcontentsline
\let\newlabel\oldnewlabel
\fi}
\fi}
\global\let\hyper@last\relax 
\gdef\HyperFirstAtBeginDocument#1{#1}
\providecommand\HyField@AuxAddToFields[1]{}
\providecommand\HyField@AuxAddToCoFields[2]{}
\babel@aux{italian}{}
\babel@aux{italian}{}
\@writefile{toc}{\contentsline {section}{\numberline {1}Introduzione}{1}{section.1}\protected@file@percent }
\@writefile{lof}{\contentsline {figure}{\numberline {1}{\ignorespaces Schema illustrativo del modello utilizzato}}{1}{figure.1}\protected@file@percent }
\newlabel{fig:schema_lastra}{{1}{1}{Schema illustrativo del modello utilizzato}{figure.1}{}}
\newlabel{eq:fitmodel}{{1}{1}{Introduzione}{equation.1.1}{}}
\newlabel{eq:liltheta}{{2}{1}{Introduzione}{equation.1.2}{}}
\@writefile{toc}{\contentsline {section}{\numberline {2}Setup}{1}{section.2}\protected@file@percent }
\newlabel{sec:setup}{{2}{2}{Setup}{section.2}{}}
\@writefile{toc}{\contentsline {section}{\numberline {3}Descrizione dei risultati}{2}{section.3}\protected@file@percent }
\@writefile{lof}{\contentsline {figure}{\numberline {2}{\ignorespaces Dati e fit per le misure con l'acqua}}{3}{figure.2}\protected@file@percent }
\newlabel{fig:meas_h2o}{{2}{3}{Dati e fit per le misure con l'acqua}{figure.2}{}}
\@writefile{toc}{\contentsline {section}{\numberline {4}Conclusione}{3}{section.4}\protected@file@percent }
\@writefile{lof}{\contentsline {figure}{\numberline {3}{\ignorespaces Dati e fit per le misure con l'olio}}{4}{figure.3}\protected@file@percent }
\newlabel{fig:meas_oil}{{3}{4}{Dati e fit per le misure con l'olio}{figure.3}{}}
\@writefile{toc}{\contentsline {section}{\numberline {5}Riflessione totale}{4}{section.5}\protected@file@percent }
\newlabel{eq:angcrit}{{3}{4}{Riflessione totale}{equation.5.3}{}}
\newlabel{eq:angcrit1}{{4}{4}{Riflessione totale}{equation.5.4}{}}
\newlabel{eq:angcrit2}{{5}{4}{Riflessione totale}{equation.5.5}{}}
\newlabel{LastPage}{{}{4}{}{page.4}{}}
\xdef\lastpage@lastpage{4}
\xdef\lastpage@lastpageHy{4}
