displ,volt
0,8.735
0.15,8.734
0.30,8.733
0.45,8.733
0.60,8.732
0.75,8.731
0.90,8.730
1.05,8.726
1.20,8.724
1.35,8.719
1.50,8.714
1.65,8.708
1.80,8.696
1.95,8.681
2.10,8.656
2.25,8.621
2.40,8.573
2.55,8.506
2.70,8.412
2.85,8.303
3.00,8.172
3.15,8.029
3.30,7.857
3.45,7.653
3.60,7.399
3.75,7.124
3.90,6.800
4.05,6.445
4.20,6.059
4.35,5.560
4.50,5.208
4.65,4.752
4.80,4.320
4.95,3.878
5.10,3.437
5.25,2.998
5.40,2.575
5.55,2.174
5.70,1.824
5.85,1.502
6.00,1.219
6.15,0.970
6.30,757.9e-3
6.45,578.9e-3
6.60,441.0e-3
6.75,326.3e-3
6.90,232.3e-3
7.05,158.7e-3
7.20,106.4e-3
7.35,71.7e-3
7.50,46.6e-3
7.65,29.9e-3
7.80,19.3e-3
7.95,12.4e-3
8.10,7.5e-3
8.35,5.1e-3
8.50,3.8e-3
8.65,2.2e-3
