<?xml version="1.0" encoding="UTF-8" standalone="no"?>
<svg
   xmlns:i="http://ns.adobe.com/AdobeIllustrator/10.0/"
   xmlns:a="http://ns.adobe.com/AdobeSVGViewerExtensions/3.0/"
   xmlns:dc="http://purl.org/dc/elements/1.1/"
   xmlns:cc="http://creativecommons.org/ns#"
   xmlns:rdf="http://www.w3.org/1999/02/22-rdf-syntax-ns#"
   xmlns:svg="http://www.w3.org/2000/svg"
   xmlns="http://www.w3.org/2000/svg"
   xmlns:xlink="http://www.w3.org/1999/xlink"
   xmlns:sodipodi="http://sodipodi.sourceforge.net/DTD/sodipodi-0.dtd"
   xmlns:inkscape="http://www.inkscape.org/namespaces/inkscape"
   style="fill-opacity:1; color-rendering:auto; color-interpolation:auto; text-rendering:auto; stroke:black; stroke-linecap:square; stroke-miterlimit:10; shape-rendering:auto; stroke-opacity:1; fill:black; stroke-dasharray:none; font-weight:normal; stroke-width:1; font-family:'Dialog'; font-style:normal; stroke-linejoin:miter; font-size:12px; stroke-dashoffset:0; image-rendering:auto;"
   width="1920"
   height="980"
   version="1.1"
   id="svg1561"
   sodipodi:docname="gausspropag.svg"
   inkscape:version="0.92.4 5da689c313, 2019-01-14">
  <metadata
     id="metadata1565">
    <rdf:RDF>
      <cc:Work
         rdf:about="">
        <dc:format>image/svg+xml</dc:format>
        <dc:type
           rdf:resource="http://purl.org/dc/dcmitype/StillImage" />
        <dc:title></dc:title>
      </cc:Work>
    </rdf:RDF>
  </metadata>
  <sodipodi:namedview
     pagecolor="#ffffff"
     bordercolor="#666666"
     borderopacity="1"
     objecttolerance="10"
     gridtolerance="10"
     guidetolerance="10"
     inkscape:pageopacity="0"
     inkscape:pageshadow="2"
     inkscape:window-width="1920"
     inkscape:window-height="1035"
     id="namedview1563"
     showgrid="false"
     inkscape:snap-bbox="true"
     inkscape:snap-bbox-midpoints="true"
     inkscape:snap-midpoints="true"
     inkscape:object-paths="true"
     inkscape:zoom="0.52643734"
     inkscape:cx="1058.8385"
     inkscape:cy="249.57088"
     inkscape:window-x="0"
     inkscape:window-y="22"
     inkscape:window-maximized="0"
     inkscape:current-layer="g1469" />
  <!--Generated by the Batik Graphics2D SVG Generator-->
  <defs
     id="genericDefs">
    <linearGradient
       inkscape:collect="always"
       xlink:href="#linearGradient3748"
       id="linearGradient3754"
       gradientUnits="userSpaceOnUse"
       gradientTransform="matrix(0.8,0,0,0.8,-32.236552,-61.1108)"
       x1="43.5355"
       y1="105.67225"
       x2="43.5355"
       y2="76.388496" />
    <linearGradient
       y2="0.37450001"
       x2="4.6269999"
       y1="23.0518"
       x1="4.6269999"
       gradientUnits="userSpaceOnUse"
       id="linearGradient3748">
      <stop
         id="stop3733"
         style="stop-color:#89A4B6"
         offset="0.0056" />
      <stop
         id="stop3735"
         style="stop-color:#FFFFFF"
         offset="0.5" />
      <stop
         id="stop3737"
         style="stop-color:#89A4B6"
         offset="1" />
      <a:midPointStop
         style="stop-color:#89A4B6"
         offset="0.0056" />
      <a:midPointStop
         style="stop-color:#89A4B6"
         offset="0.5" />
      <a:midPointStop
         style="stop-color:#FFFFFF"
         offset="0.5" />
      <a:midPointStop
         style="stop-color:#FFFFFF"
         offset="0.5" />
      <a:midPointStop
         style="stop-color:#89A4B6"
         offset="1" />
    </linearGradient>
    <linearGradient
       inkscape:collect="always"
       xlink:href="#linearGradient3748"
       id="linearGradient13018"
       gradientUnits="userSpaceOnUse"
       gradientTransform="matrix(0.8,0,0,0.8,-32.236552,-61.1108)"
       x1="43.5355"
       y1="105.67225"
       x2="43.5355"
       y2="76.388496" />
    <linearGradient
       inkscape:collect="always"
       xlink:href="#linearGradient3748"
       id="linearGradient13032"
       gradientUnits="userSpaceOnUse"
       gradientTransform="matrix(0.8,0,0,0.8,-32.236552,-61.1108)"
       x1="43.5355"
       y1="105.67225"
       x2="43.5355"
       y2="76.388496" />
  </defs>
  <g
     id="g1559">
    <defs
       id="defs1">
      <clipPath
         clipPathUnits="userSpaceOnUse"
         id="clipPath1">
        <path
           d="M 0,0 H 1920 V 980 H 0 Z"
           id="path1211"
           inkscape:connector-curvature="0" />
      </clipPath>
      <font
         horiz-adv-x="60.009766"
         id="font1"
         horiz-origin-x="0"
         horiz-origin-y="0"
         vert-origin-x="45"
         vert-origin-y="90"
         vert-adv-y="90">
        <font-face
           ascent="92.822266"
           descent="23.583984"
           units-per-em="100"
           style="font-style:normal; font-family:SansSerif; font-weight:normal;"
           id="font-face1214" />
        <missing-glyph
           horiz-adv-x="60.009766"
           d="M4.9844 -17.6719 L4.9844 70.5156 L54.9844 70.5156 L54.9844 -17.6719 L4.9844 -17.6719 ZM10.5938 -12.1094 L49.4219 -12.1094 L49.4219 64.8906 L10.5938 64.8906 L10.5938 -12.1094 Z"
           id="missing-glyph1216" />
        <glyph
           unicode="0"
           horiz-adv-x="63.623047"
           d="M31.7812 66.4062 Q24.1719 66.4062 20.3359 58.9141 Q16.5 51.4219 16.5 36.375 Q16.5 21.3906 20.3359 13.8906 Q24.1719 6.3906 31.7812 6.3906 Q39.4531 6.3906 43.2891 13.8906 Q47.125 21.3906 47.125 36.375 Q47.125 51.4219 43.2891 58.9141 Q39.4531 66.4062 31.7812 66.4062 ZM31.7812 74.2188 Q44.0469 74.2188 50.5156 64.5234 Q56.9844 54.8281 56.9844 36.375 Q56.9844 17.9688 50.5156 8.2734 Q44.0469 -1.4219 31.7812 -1.4219 Q19.5312 -1.4219 13.0625 8.2734 Q6.5938 17.9688 6.5938 36.375 Q6.5938 54.8281 13.0625 64.5234 Q19.5312 74.2188 31.7812 74.2188 Z"
           id="glyph1218" />
        <glyph
           unicode="2"
           horiz-adv-x="63.623047"
           d="M19.1875 8.2969 L53.6094 8.2969 L53.6094 0 L7.3281 0 L7.3281 8.2969 Q12.9375 14.1094 22.6328 23.8984 Q32.3281 33.6875 34.8125 36.5312 Q39.5469 41.8438 41.4297 45.5312 Q43.3125 49.2188 43.3125 52.7812 Q43.3125 58.5938 39.2344 62.2578 Q35.1562 65.9219 28.6094 65.9219 Q23.9688 65.9219 18.8203 64.3125 Q13.6719 62.7031 7.8125 59.4219 L7.8125 69.3906 Q13.7656 71.7812 18.9453 73 Q24.125 74.2188 28.4219 74.2188 Q39.75 74.2188 46.4844 68.5547 Q53.2188 62.8906 53.2188 53.4219 Q53.2188 48.9219 51.5391 44.8984 Q49.8594 40.875 45.4062 35.4062 Q44.1875 33.9844 37.6484 27.2188 Q31.1094 20.4531 19.1875 8.2969 Z"
           id="glyph1220" />
        <glyph
           unicode="4"
           horiz-adv-x="63.623047"
           d="M37.7969 64.3125 L12.8906 25.3906 L37.7969 25.3906 L37.7969 64.3125 ZM35.2031 72.9062 L47.6094 72.9062 L47.6094 25.3906 L58.0156 25.3906 L58.0156 17.1875 L47.6094 17.1875 L47.6094 0 L37.7969 0 L37.7969 17.1875 L4.8906 17.1875 L4.8906 26.7031 L35.2031 72.9062 Z"
           id="glyph1222" />
        <glyph
           unicode="6"
           horiz-adv-x="63.623047"
           d="M33.0156 40.375 Q26.375 40.375 22.4922 35.8359 Q18.6094 31.2969 18.6094 23.3906 Q18.6094 15.5312 22.4922 10.9609 Q26.375 6.3906 33.0156 6.3906 Q39.6562 6.3906 43.5312 10.9609 Q47.4062 15.5312 47.4062 23.3906 Q47.4062 31.2969 43.5312 35.8359 Q39.6562 40.375 33.0156 40.375 ZM52.5938 71.2969 L52.5938 62.3125 Q48.875 64.0625 45.0938 64.9922 Q41.3125 65.9219 37.5938 65.9219 Q27.8281 65.9219 22.6797 59.3281 Q17.5312 52.7344 16.7969 39.4062 Q19.6719 43.6562 24.0234 45.9219 Q28.375 48.1875 33.5938 48.1875 Q44.5781 48.1875 50.9531 41.5234 Q57.3281 34.8594 57.3281 23.3906 Q57.3281 12.1562 50.6875 5.3672 Q44.0469 -1.4219 33.0156 -1.4219 Q20.3594 -1.4219 13.6719 8.2734 Q6.9844 17.9688 6.9844 36.375 Q6.9844 53.6562 15.1875 63.9375 Q23.3906 74.2188 37.2031 74.2188 Q40.9219 74.2188 44.7031 73.4844 Q48.4844 72.75 52.5938 71.2969 Z"
           id="glyph1224" />
        <glyph
           unicode="8"
           horiz-adv-x="63.623047"
           d="M31.7812 34.625 Q24.75 34.625 20.7266 30.8594 Q16.7031 27.0938 16.7031 20.5156 Q16.7031 13.9219 20.7266 10.1562 Q24.75 6.3906 31.7812 6.3906 Q38.8125 6.3906 42.8672 10.1797 Q46.9219 13.9688 46.9219 20.5156 Q46.9219 27.0938 42.8984 30.8594 Q38.875 34.625 31.7812 34.625 ZM21.9219 38.8125 Q15.5781 40.375 12.0391 44.7266 Q8.5 49.0781 8.5 55.3281 Q8.5 64.0625 14.7266 69.1406 Q20.9531 74.2188 31.7812 74.2188 Q42.6719 74.2188 48.875 69.1406 Q55.0781 64.0625 55.0781 55.3281 Q55.0781 49.0781 51.5391 44.7266 Q48 40.375 41.7031 38.8125 Q48.8281 37.1562 52.8047 32.3203 Q56.7812 27.4844 56.7812 20.5156 Q56.7812 9.9062 50.3125 4.2422 Q43.8438 -1.4219 31.7812 -1.4219 Q19.7344 -1.4219 13.2578 4.2422 Q6.7812 9.9062 6.7812 20.5156 Q6.7812 27.4844 10.7891 32.3203 Q14.7969 37.1562 21.9219 38.8125 ZM18.3125 54.3906 Q18.3125 48.7344 21.8516 45.5625 Q25.3906 42.3906 31.7812 42.3906 Q38.1406 42.3906 41.7266 45.5625 Q45.3125 48.7344 45.3125 54.3906 Q45.3125 60.0625 41.7266 63.2344 Q38.1406 66.4062 31.7812 66.4062 Q25.3906 66.4062 21.8516 63.2344 Q18.3125 60.0625 18.3125 54.3906 Z"
           id="glyph1226" />
        <glyph
           unicode="1"
           horiz-adv-x="63.623047"
           d="M12.4062 8.2969 L28.5156 8.2969 L28.5156 63.9219 L10.9844 60.4062 L10.9844 69.3906 L28.4219 72.9062 L38.2812 72.9062 L38.2812 8.2969 L54.3906 8.2969 L54.3906 0 L12.4062 0 L12.4062 8.2969 Z"
           id="glyph1228" />
        <glyph
           unicode=")"
           horiz-adv-x="39.01367"
           d="M8.0156 75.875 L15.8281 75.875 Q23.1406 64.3594 26.7812 53.3203 Q30.4219 42.2812 30.4219 31.3906 Q30.4219 20.4531 26.7812 9.375 Q23.1406 -1.7031 15.8281 -13.1875 L8.0156 -13.1875 Q14.5 -2 17.7031 9.0625 Q20.9062 20.125 20.9062 31.3906 Q20.9062 42.6719 17.7031 53.6641 Q14.5 64.6562 8.0156 75.875 Z"
           id="glyph1230" />
        <glyph
           unicode="m"
           horiz-adv-x="97.41211"
           d="M52 44.1875 Q55.375 50.25 60.0625 53.125 Q64.75 56 71.0938 56 Q79.6406 56 84.2812 50.0234 Q88.9219 44.0469 88.9219 33.0156 L88.9219 0 L79.8906 0 L79.8906 32.7188 Q79.8906 40.5781 77.1016 44.3828 Q74.3125 48.1875 68.6094 48.1875 Q61.625 48.1875 57.5703 43.5547 Q53.5156 38.9219 53.5156 30.9062 L53.5156 0 L44.4844 0 L44.4844 32.7188 Q44.4844 40.625 41.7031 44.4062 Q38.9219 48.1875 33.1094 48.1875 Q26.2188 48.1875 22.1641 43.5312 Q18.1094 38.875 18.1094 30.9062 L18.1094 0 L9.0781 0 L9.0781 54.6875 L18.1094 54.6875 L18.1094 46.1875 Q21.1875 51.2188 25.4844 53.6094 Q29.7812 56 35.6875 56 Q41.6562 56 45.8281 52.9766 Q50 49.9531 52 44.1875 Z"
           id="glyph1232" />
        <glyph
           unicode="("
           horiz-adv-x="39.01367"
           d="M31 75.875 Q24.4688 64.6562 21.2891 53.6641 Q18.1094 42.6719 18.1094 31.3906 Q18.1094 20.125 21.3125 9.0625 Q24.5156 -2 31 -13.1875 L23.1875 -13.1875 Q15.875 -1.7031 12.2344 9.375 Q8.5938 20.4531 8.5938 31.3906 Q8.5938 42.2812 12.2109 53.3203 Q15.8281 64.3594 23.1875 75.875 L31 75.875 Z"
           id="glyph1234" />
        <glyph
           unicode="z"
           horiz-adv-x="52.490234"
           d="M5.5156 54.6875 L48.1875 54.6875 L48.1875 46.4844 L14.4062 7.1719 L48.1875 7.1719 L48.1875 0 L4.2969 0 L4.2969 8.2031 L38.0938 47.5156 L5.5156 47.5156 L5.5156 54.6875 Z"
           id="glyph1236" />
        <glyph
           unicode="5"
           horiz-adv-x="63.623047"
           d="M10.7969 72.9062 L49.5156 72.9062 L49.5156 64.5938 L19.8281 64.5938 L19.8281 46.7344 Q21.9688 47.4688 24.1172 47.8281 Q26.2656 48.1875 28.4219 48.1875 Q40.625 48.1875 47.7578 41.5 Q54.8906 34.8125 54.8906 23.3906 Q54.8906 11.625 47.5625 5.1016 Q40.2344 -1.4219 26.9062 -1.4219 Q22.3125 -1.4219 17.5547 -0.6406 Q12.7969 0.1406 7.7188 1.7031 L7.7188 11.625 Q12.1094 9.2344 16.7969 8.0625 Q21.4844 6.8906 26.7031 6.8906 Q35.1562 6.8906 40.0859 11.3281 Q45.0156 15.7656 45.0156 23.3906 Q45.0156 31 40.0859 35.4453 Q35.1562 39.8906 26.7031 39.8906 Q22.75 39.8906 18.8203 39.0156 Q14.8906 38.1406 10.7969 36.2812 L10.7969 72.9062 Z"
           id="glyph1238" />
        <glyph
           unicode="."
           horiz-adv-x="31.78711"
           d="M10.6875 12.4062 L21 12.4062 L21 0 L10.6875 0 L10.6875 12.4062 Z"
           id="glyph1240" />
        <glyph
           unicode="-"
           horiz-adv-x="36.083984"
           d="M4.8906 31.3906 L31.2031 31.3906 L31.2031 23.3906 L4.8906 23.3906 L4.8906 31.3906 Z"
           id="glyph1242" />
        <glyph
           unicode="y"
           horiz-adv-x="59.179688"
           d="M32.1719 -5.0781 Q28.375 -14.8438 24.7578 -17.8203 Q21.1406 -20.7969 15.0938 -20.7969 L7.9062 -20.7969 L7.9062 -13.2812 L13.1875 -13.2812 Q16.8906 -13.2812 18.9453 -11.5234 Q21 -9.7656 23.4844 -3.2188 L25.0938 0.875 L2.9844 54.6875 L12.5 54.6875 L29.5938 11.9219 L46.6875 54.6875 L56.2031 54.6875 L32.1719 -5.0781 Z"
           id="glyph1244" />
        <glyph
           unicode="3"
           horiz-adv-x="63.623047"
           d="M40.5781 39.3125 Q47.6562 37.7969 51.6328 33.0078 Q55.6094 28.2188 55.6094 21.1875 Q55.6094 10.4062 48.1875 4.4922 Q40.7656 -1.4219 27.0938 -1.4219 Q22.5156 -1.4219 17.6562 -0.5156 Q12.7969 0.3906 7.625 2.2031 L7.625 11.7188 Q11.7188 9.3281 16.6016 8.1094 Q21.4844 6.8906 26.8125 6.8906 Q36.0781 6.8906 40.9375 10.5469 Q45.7969 14.2031 45.7969 21.1875 Q45.7969 27.6406 41.2812 31.2734 Q36.7656 34.9062 28.7188 34.9062 L20.2188 34.9062 L20.2188 43.0156 L29.1094 43.0156 Q36.375 43.0156 40.2344 45.9219 Q44.0938 48.8281 44.0938 54.2969 Q44.0938 59.9062 40.1172 62.9141 Q36.1406 65.9219 28.7188 65.9219 Q24.6562 65.9219 20.0156 65.0391 Q15.375 64.1562 9.8125 62.3125 L9.8125 71.0938 Q15.4375 72.6562 20.3438 73.4375 Q25.25 74.2188 29.5938 74.2188 Q40.8281 74.2188 47.3672 69.1172 Q53.9062 64.0156 53.9062 55.3281 Q53.9062 49.2656 50.4375 45.0938 Q46.9688 40.9219 40.5781 39.3125 Z"
           id="glyph1246" />
        <glyph
           unicode="="
           horiz-adv-x="83.78906"
           d="M10.5938 45.4062 L73.1875 45.4062 L73.1875 37.2031 L10.5938 37.2031 L10.5938 45.4062 ZM10.5938 25.4844 L73.1875 25.4844 L73.1875 17.1875 L10.5938 17.1875 L10.5938 25.4844 Z"
           id="glyph1248" />
        <glyph
           unicode="f"
           horiz-adv-x="35.20508"
           d="M37.1094 75.9844 L37.1094 68.5 L28.5156 68.5 Q23.6875 68.5 21.8047 66.5469 Q19.9219 64.5938 19.9219 59.5156 L19.9219 54.6875 L34.7188 54.6875 L34.7188 47.7031 L19.9219 47.7031 L19.9219 0 L10.8906 0 L10.8906 47.7031 L2.2969 47.7031 L2.2969 54.6875 L10.8906 54.6875 L10.8906 58.5 Q10.8906 67.625 15.1406 71.8047 Q19.3906 75.9844 28.6094 75.9844 L37.1094 75.9844 Z"
           id="glyph1250" />
        <glyph
           unicode="9"
           horiz-adv-x="63.623047"
           d="M10.9844 1.5156 L10.9844 10.5 Q14.7031 8.7344 18.5078 7.8125 Q22.3125 6.8906 25.9844 6.8906 Q35.75 6.8906 40.8984 13.4531 Q46.0469 20.0156 46.7812 33.4062 Q43.9531 29.2031 39.6016 26.9531 Q35.25 24.7031 29.9844 24.7031 Q19.0469 24.7031 12.6719 31.3203 Q6.2969 37.9375 6.2969 49.4219 Q6.2969 60.6406 12.9375 67.4297 Q19.5781 74.2188 30.6094 74.2188 Q43.2656 74.2188 49.9297 64.5234 Q56.5938 54.8281 56.5938 36.375 Q56.5938 19.1406 48.4141 8.8594 Q40.2344 -1.4219 26.4219 -1.4219 Q22.7031 -1.4219 18.8984 -0.6875 Q15.0938 0.0469 10.9844 1.5156 ZM30.6094 32.4219 Q37.25 32.4219 41.1328 36.9609 Q45.0156 41.5 45.0156 49.4219 Q45.0156 57.2812 41.1328 61.8438 Q37.25 66.4062 30.6094 66.4062 Q23.9688 66.4062 20.0938 61.8438 Q16.2188 57.2812 16.2188 49.4219 Q16.2188 41.5 20.0938 36.9609 Q23.9688 32.4219 30.6094 32.4219 Z"
           id="glyph1252" />
        <glyph
           unicode="Z"
           horiz-adv-x="68.50586"
           d="M5.6094 72.9062 L62.8906 72.9062 L62.8906 65.375 L16.7969 8.2969 L64.0156 8.2969 L64.0156 0 L4.5 0 L4.5 7.5156 L50.5938 64.5938 L5.6094 64.5938 L5.6094 72.9062 Z"
           id="glyph1254" />
        <glyph
           unicode="+"
           horiz-adv-x="83.78906"
           d="M46 62.7031 L46 35.5 L73.1875 35.5 L73.1875 27.2031 L46 27.2031 L46 0 L37.7969 0 L37.7969 27.2031 L10.5938 27.2031 L10.5938 35.5 L37.7969 35.5 L37.7969 62.7031 L46 62.7031 Z"
           id="glyph1256" />
        <glyph
           unicode="t"
           horiz-adv-x="39.208984"
           d="M18.3125 70.2188 L18.3125 54.6875 L36.8125 54.6875 L36.8125 47.7031 L18.3125 47.7031 L18.3125 18.0156 Q18.3125 11.3281 20.1406 9.4219 Q21.9688 7.5156 27.5938 7.5156 L36.8125 7.5156 L36.8125 0 L27.5938 0 Q17.1875 0 13.2344 3.8828 Q9.2812 7.7656 9.2812 18.0156 L9.2812 47.7031 L2.6875 47.7031 L2.6875 54.6875 L9.2812 54.6875 L9.2812 70.2188 L18.3125 70.2188 Z"
           id="glyph1258" />
        <glyph
           unicode="s"
           horiz-adv-x="52.09961"
           d="M44.2812 53.0781 L44.2812 44.5781 Q40.4844 46.5312 36.3828 47.5078 Q32.2812 48.4844 27.875 48.4844 Q21.1875 48.4844 17.8438 46.4375 Q14.5 44.3906 14.5 40.2812 Q14.5 37.1562 16.8906 35.375 Q19.2812 33.5938 26.5156 31.9844 L29.5938 31.2969 Q39.1562 29.25 43.1875 25.5156 Q47.2188 21.7812 47.2188 15.0938 Q47.2188 7.4688 41.1875 3.0234 Q35.1562 -1.4219 24.6094 -1.4219 Q20.2188 -1.4219 15.4531 -0.5625 Q10.6875 0.2969 5.4219 2 L5.4219 11.2812 Q10.4062 8.6875 15.2344 7.3984 Q20.0625 6.1094 24.8125 6.1094 Q31.1562 6.1094 34.5703 8.2812 Q37.9844 10.4531 37.9844 14.4062 Q37.9844 18.0625 35.5234 20.0156 Q33.0625 21.9688 24.7031 23.7812 L21.5781 24.5156 Q13.2344 26.2656 9.5234 29.9062 Q5.8125 33.5469 5.8125 39.8906 Q5.8125 47.6094 11.2812 51.8047 Q16.75 56 26.8125 56 Q31.7812 56 36.1797 55.2734 Q40.5781 54.5469 44.2812 53.0781 Z"
           id="glyph1260" />
        <glyph
           unicode="i"
           horiz-adv-x="27.783203"
           d="M9.4219 54.6875 L18.4062 54.6875 L18.4062 0 L9.4219 0 L9.4219 54.6875 ZM9.4219 75.9844 L18.4062 75.9844 L18.4062 64.5938 L9.4219 64.5938 L9.4219 75.9844 Z"
           id="glyph1262" />
        <glyph
           unicode="w"
           horiz-adv-x="81.78711"
           d="M4.2031 54.6875 L13.1875 54.6875 L24.4219 12.0156 L35.5938 54.6875 L46.1875 54.6875 L57.4219 12.0156 L68.6094 54.6875 L77.5938 54.6875 L63.2812 0 L52.6875 0 L40.9219 44.8281 L29.1094 0 L18.5 0 L4.2031 54.6875 Z"
           id="glyph1264" />
        <glyph
           unicode=" "
           horiz-adv-x="31.78711"
           d=""
           id="glyph1266" />
        <glyph
           unicode="a"
           horiz-adv-x="61.279297"
           d="M34.2812 27.4844 Q23.3906 27.4844 19.1875 25 Q14.9844 22.5156 14.9844 16.5 Q14.9844 11.7188 18.1406 8.9141 Q21.2969 6.1094 26.7031 6.1094 Q34.1875 6.1094 38.7031 11.4062 Q43.2188 16.7031 43.2188 25.4844 L43.2188 27.4844 L34.2812 27.4844 ZM52.2031 31.2031 L52.2031 0 L43.2188 0 L43.2188 8.2969 Q40.1406 3.3281 35.5469 0.9531 Q30.9531 -1.4219 24.3125 -1.4219 Q15.9219 -1.4219 10.9609 3.2969 Q6 8.0156 6 15.9219 Q6 25.1406 12.1797 29.8281 Q18.3594 34.5156 30.6094 34.5156 L43.2188 34.5156 L43.2188 35.4062 Q43.2188 41.6094 39.1406 45 Q35.0625 48.3906 27.6875 48.3906 Q23 48.3906 18.5547 47.2656 Q14.1094 46.1406 10.0156 43.8906 L10.0156 52.2031 Q14.9375 54.1094 19.5781 55.0547 Q24.2188 56 28.6094 56 Q40.4844 56 46.3438 49.8516 Q52.2031 43.7031 52.2031 31.2031 Z"
           id="glyph1268" />
        <glyph
           unicode="e"
           horiz-adv-x="61.523438"
           d="M56.2031 29.5938 L56.2031 25.2031 L14.8906 25.2031 Q15.4844 15.9219 20.4844 11.0625 Q25.4844 6.2031 34.4219 6.2031 Q39.5938 6.2031 44.4531 7.4688 Q49.3125 8.7344 54.1094 11.2812 L54.1094 2.7812 Q49.2656 0.7344 44.1875 -0.3438 Q39.1094 -1.4219 33.8906 -1.4219 Q20.7969 -1.4219 13.1562 6.1953 Q5.5156 13.8125 5.5156 26.8125 Q5.5156 40.2344 12.7656 48.1172 Q20.0156 56 32.3281 56 Q43.3594 56 49.7812 48.8984 Q56.2031 41.7969 56.2031 29.5938 ZM47.2188 32.2344 Q47.125 39.5938 43.0938 43.9922 Q39.0625 48.3906 32.4219 48.3906 Q24.9062 48.3906 20.3906 44.1406 Q15.875 39.8906 15.1875 32.1719 L47.2188 32.2344 Z"
           id="glyph1270" />
        <glyph
           unicode="b"
           horiz-adv-x="63.476562"
           d="M48.6875 27.2969 Q48.6875 37.2031 44.6094 42.8438 Q40.5312 48.4844 33.4062 48.4844 Q26.2656 48.4844 22.1875 42.8438 Q18.1094 37.2031 18.1094 27.2969 Q18.1094 17.3906 22.1875 11.75 Q26.2656 6.1094 33.4062 6.1094 Q40.5312 6.1094 44.6094 11.75 Q48.6875 17.3906 48.6875 27.2969 ZM18.1094 46.3906 Q20.9531 51.2656 25.2734 53.6328 Q29.5938 56 35.5938 56 Q45.5625 56 51.7891 48.0938 Q58.0156 40.1875 58.0156 27.2969 Q58.0156 14.4062 51.7891 6.4922 Q45.5625 -1.4219 35.5938 -1.4219 Q29.5938 -1.4219 25.2734 0.9531 Q20.9531 3.3281 18.1094 8.2031 L18.1094 0 L9.0781 0 L9.0781 75.9844 L18.1094 75.9844 L18.1094 46.3906 Z"
           id="glyph1272" />
        <glyph
           unicode="l"
           horiz-adv-x="27.783203"
           d="M9.4219 75.9844 L18.4062 75.9844 L18.4062 0 L9.4219 0 L9.4219 75.9844 Z"
           id="glyph1274" />
        <glyph
           unicode="n"
           horiz-adv-x="63.378906"
           d="M54.8906 33.0156 L54.8906 0 L45.9062 0 L45.9062 32.7188 Q45.9062 40.4844 42.875 44.3359 Q39.8438 48.1875 33.7969 48.1875 Q26.5156 48.1875 22.3125 43.5547 Q18.1094 38.9219 18.1094 30.9062 L18.1094 0 L9.0781 0 L9.0781 54.6875 L18.1094 54.6875 L18.1094 46.1875 Q21.3438 51.125 25.7109 53.5625 Q30.0781 56 35.7969 56 Q45.2188 56 50.0547 50.1719 Q54.8906 44.3438 54.8906 33.0156 Z"
           id="glyph1276" />
        <glyph
           unicode="h"
           horiz-adv-x="63.378906"
           d="M54.8906 33.0156 L54.8906 0 L45.9062 0 L45.9062 32.7188 Q45.9062 40.4844 42.875 44.3359 Q39.8438 48.1875 33.7969 48.1875 Q26.5156 48.1875 22.3125 43.5547 Q18.1094 38.9219 18.1094 30.9062 L18.1094 0 L9.0781 0 L9.0781 75.9844 L18.1094 75.9844 L18.1094 46.1875 Q21.3438 51.125 25.7109 53.5625 Q30.0781 56 35.7969 56 Q45.2188 56 50.0547 50.1719 Q54.8906 44.3438 54.8906 33.0156 Z"
           id="glyph1278" />
      </font>
      <font
         horiz-adv-x="75"
         id="font2"
         horiz-origin-x="0"
         horiz-origin-y="0"
         vert-origin-x="45"
         vert-origin-y="90"
         vert-adv-y="90">
        <font-face
           ascent="65.42969"
           descent="22.558594"
           units-per-em="100"
           style="font-style:normal; font-family:mwb_cmsy10; font-weight:normal;"
           id="font-face1281" />
        <missing-glyph
           horiz-adv-x="75.0"
           d="M12.5 0 L12.5 62.5 L62.5 62.5 L62.5 0 L12.5 0 ZM60.8906 1.6094 L60.8906 60.8906 L14.1094 60.8906 L14.1094 1.6094 L60.8906 1.6094 Z"
           id="missing-glyph1283" />
        <glyph
           unicode="#"
           horiz-adv-x="77.68555"
           d="M14.7031 2.875 Q14.7031 3.6562 15.1875 4.2969 L35.9844 25 L15.1875 45.7969 Q14.7031 46.2969 14.7031 47.125 Q14.7031 47.8594 15.2891 48.4922 Q15.875 49.125 16.7031 49.125 Q17.3906 49.125 18.2188 48.4844 L38.9219 27.7812 L59.5156 48.4844 Q60.3594 49.125 60.9844 49.125 Q61.8125 49.125 62.3984 48.5391 Q62.9844 47.9531 62.9844 47.125 Q62.9844 46.2969 62.5 45.7969 L41.7031 25 L62.5 4.2969 Q62.9844 3.6562 62.9844 2.875 Q62.9844 2.0469 62.3984 1.4609 Q61.8125 0.875 60.9844 0.875 Q60.25 0.875 59.5156 1.6094 L38.9219 22.2188 L18.2188 1.6094 Q17.4844 0.875 16.7031 0.875 Q15.875 0.875 15.2891 1.5156 Q14.7031 2.1562 14.7031 2.875 Z"
           id="glyph1285" />
      </font>
    </defs>
    <g
       style="fill:#ffffff;stroke:#ffffff"
       id="g1291">
      <rect
         x="0"
         y="0"
         width="1920"
         style="stroke:none"
         height="980"
         clip-path="url(#clipPath1)"
         id="rect1289" />
    </g>
    <g
       style="color-interpolation:sRGB;fill:#ffffff;stroke:#ffffff;color-rendering:optimizeSpeed;image-rendering:optimizeSpeed;shape-rendering:crispEdges;text-rendering:optimizeSpeed"
       id="g1297">
      <rect
         x="0"
         width="1920"
         height="980"
         y="0"
         style="stroke:none"
         id="rect1293" />
      <path
         style="stroke:none;stroke-opacity:1"
         d="M 250,872 H 1738 V 73 H 250 Z"
         id="path1295"
         inkscape:connector-curvature="0" />
    </g>
    <path
       style="fill:none;fill-rule:evenodd;stroke:#000000;stroke-width:1;stroke-linecap:butt;stroke-linejoin:miter;stroke-miterlimit:10;stroke-dasharray:1, 4;stroke-dashoffset:0;stroke-opacity:1"
       d="M 1312.8571,363.8266 H 250"
       inkscape:connector-curvature="0"
       id="path13058" />
    <g
       style="color-interpolation:linearRGB;fill:none;stroke:#383838;stroke-width:2;stroke-linecap:butt;stroke-linejoin:bevel;stroke-miterlimit:1;stroke-dasharray:2, 4;stroke-dashoffset:0;stroke-opacity:1;color-rendering:optimizeQuality;image-rendering:optimizeQuality;text-rendering:geometricPrecision"
       id="g13052"
       transform="translate(530)">
      <path
         inkscape:connector-curvature="0"
         d="M 413.52886,642.10552 V 872"
         style="fill:none;fill-rule:evenodd;stroke:#383838;stroke-width:2;stroke-linecap:butt;stroke-linejoin:miter;stroke-miterlimit:1;stroke-dasharray:2, 4;stroke-dashoffset:0;stroke-opacity:1"
         id="path13050" />
    </g>
    <path
       style="fill:none;fill-rule:evenodd;stroke:#000000;stroke-width:1;stroke-linecap:butt;stroke-linejoin:miter;stroke-miterlimit:10;stroke-dasharray:1, 4;stroke-dashoffset:0;stroke-opacity:1"
       d="M 1312.8571,581.1725 H 250"
       inkscape:connector-curvature="0"
       id="path13060" />
    <g
       transform="translate(250,877.3333)"
       style="font-size:13.33329964px;font-family:SansSerif;color-interpolation:linearRGB;fill:#262626;stroke:#262626;color-rendering:optimizeQuality;image-rendering:optimizeQuality;text-rendering:geometricPrecision"
       id="g1339">
      <text
         x="-4.5"
         xml:space="preserve"
         y="13"
         style="stroke:none"
         id="text1337">0</text>
    </g>
    <g
       transform="translate(462.5714,877.3333)"
       style="font-size:13.33329964px;font-family:SansSerif;color-interpolation:linearRGB;fill:#262626;stroke:#262626;color-rendering:optimizeQuality;image-rendering:optimizeQuality;text-rendering:geometricPrecision"
       id="g1343">
      <text
         x="-4.5"
         xml:space="preserve"
         y="13"
         style="stroke:none"
         id="text1341">2</text>
    </g>
    <g
       transform="translate(675.1429,877.3333)"
       style="font-size:13.33329964px;font-family:SansSerif;color-interpolation:linearRGB;fill:#262626;stroke:#262626;color-rendering:optimizeQuality;image-rendering:optimizeQuality;text-rendering:geometricPrecision"
       id="g1347">
      <text
         x="-4.5"
         xml:space="preserve"
         y="13"
         style="stroke:none"
         id="text1345">4</text>
    </g>
    <g
       transform="translate(887.7143,877.3333)"
       style="font-size:13.33329964px;font-family:SansSerif;color-interpolation:linearRGB;fill:#262626;stroke:#262626;color-rendering:optimizeQuality;image-rendering:optimizeQuality;text-rendering:geometricPrecision"
       id="g1351">
      <text
         x="-4.5"
         xml:space="preserve"
         y="13"
         style="stroke:none"
         id="text1349">6</text>
    </g>
    <g
       transform="translate(1100.2858,877.3333)"
       style="font-size:13.33329964px;font-family:SansSerif;color-interpolation:linearRGB;fill:#262626;stroke:#262626;color-rendering:optimizeQuality;image-rendering:optimizeQuality;text-rendering:geometricPrecision"
       id="g1355">
      <text
         x="-4.5"
         xml:space="preserve"
         y="13"
         style="stroke:none"
         id="text1353">8</text>
    </g>
    <g
       transform="translate(1312.8572,877.3333)"
       style="font-size:13.33329964px;font-family:SansSerif;color-interpolation:linearRGB;fill:#262626;stroke:#262626;color-rendering:optimizeQuality;image-rendering:optimizeQuality;text-rendering:geometricPrecision"
       id="g1359">
      <text
         x="-8.5"
         xml:space="preserve"
         y="13"
         style="stroke:none"
         id="text1357">10</text>
    </g>
    <g
       transform="translate(1525.4286,877.3333)"
       style="font-size:13.33329964px;font-family:SansSerif;color-interpolation:linearRGB;fill:#262626;stroke:#262626;color-rendering:optimizeQuality;image-rendering:optimizeQuality;text-rendering:geometricPrecision"
       id="g1363">
      <text
         x="-8.5"
         xml:space="preserve"
         y="13"
         style="stroke:none"
         id="text1361">12</text>
    </g>
    <g
       transform="translate(1738,877.3333)"
       style="font-size:13.33329964px;font-family:SansSerif;color-interpolation:linearRGB;fill:#262626;stroke:#262626;color-rendering:optimizeQuality;image-rendering:optimizeQuality;text-rendering:geometricPrecision"
       id="g1367">
      <text
         x="-8.5"
         xml:space="preserve"
         y="13"
         style="stroke:none"
         id="text1365">14</text>
    </g>
    <g
       transform="translate(994.0007,895.6667)"
       style="font-size:14.66670036px;font-family:SansSerif;color-interpolation:linearRGB;fill:#262626;stroke:#262626;color-rendering:optimizeQuality;image-rendering:optimizeQuality;text-rendering:geometricPrecision"
       id="g1371">
      <text
         x="-17"
         xml:space="preserve"
         y="34"
         style="font-size:33.33336639px;stroke:none"
         id="text1369">z (m)</text>
    </g>
    <g
       style="color-interpolation:linearRGB;fill:#262626;stroke:#262626;stroke-width:0.66670001;stroke-linejoin:round;color-rendering:optimizeQuality;image-rendering:optimizeQuality;text-rendering:geometricPrecision"
       id="g1421">
      <line
         y2="73"
         style="fill:none"
         x1="250"
         x2="250"
         y1="872"
         id="line1373" />
      <line
         y2="872"
         style="fill:none"
         x1="250"
         x2="264.88"
         y1="872"
         id="line1377" />
      <line
         y2="792.09998"
         style="fill:none"
         x1="250"
         x2="264.88"
         y1="792.09998"
         id="line1379" />
      <line
         y2="712.20001"
         style="fill:none"
         x1="250"
         x2="264.88"
         y1="712.20001"
         id="line1381" />
      <line
         y2="632.29999"
         style="fill:none"
         x1="250"
         x2="264.88"
         y1="632.29999"
         id="line1383" />
      <line
         y2="552.40002"
         style="fill:none"
         x1="250"
         x2="264.88"
         y1="552.40002"
         id="line1385" />
      <line
         y2="472.5"
         style="fill:none"
         x1="250"
         x2="264.88"
         y1="472.5"
         id="line1387" />
      <line
         y2="392.60001"
         style="fill:none"
         x1="250"
         x2="264.88"
         y1="392.60001"
         id="line1389" />
      <line
         y2="312.70001"
         style="fill:none"
         x1="250"
         x2="264.88"
         y1="312.70001"
         id="line1391" />
      <line
         y2="232.8"
         style="fill:none"
         x1="250"
         x2="264.88"
         y1="232.8"
         id="line1393" />
      <line
         y2="152.89999"
         style="fill:none"
         x1="250"
         x2="264.88"
         y1="152.89999"
         id="line1395" />
      <line
         y2="73"
         style="fill:none"
         x1="250"
         x2="264.88"
         y1="73"
         id="line1397" />
      <line
         y2="872"
         style="fill:none"
         x1="1738"
         x2="1723.12"
         y1="872"
         id="line1399" />
    </g>
    <g
       transform="translate(244.6667,872)"
       style="font-size:13.33329964px;font-family:SansSerif;color-interpolation:linearRGB;fill:#262626;stroke:#262626;color-rendering:optimizeQuality;image-rendering:optimizeQuality;text-rendering:geometricPrecision"
       id="g1425">
      <text
         x="-26"
         xml:space="preserve"
         y="4.5"
         style="stroke:none"
         id="text1423">-2.5</text>
    </g>
    <g
       transform="translate(244.6667,792.1)"
       style="font-size:13.33329964px;font-family:SansSerif;color-interpolation:linearRGB;fill:#262626;stroke:#262626;color-rendering:optimizeQuality;image-rendering:optimizeQuality;text-rendering:geometricPrecision"
       id="g1429">
      <text
         x="-14"
         xml:space="preserve"
         y="4.5"
         style="stroke:none"
         id="text1427">-2</text>
    </g>
    <g
       transform="translate(244.6667,712.2)"
       style="font-size:13.33329964px;font-family:SansSerif;color-interpolation:linearRGB;fill:#262626;stroke:#262626;color-rendering:optimizeQuality;image-rendering:optimizeQuality;text-rendering:geometricPrecision"
       id="g1433">
      <text
         x="-26"
         xml:space="preserve"
         y="4.5"
         style="stroke:none"
         id="text1431">-1.5</text>
    </g>
    <g
       transform="translate(244.6667,632.3)"
       style="font-size:13.33329964px;font-family:SansSerif;color-interpolation:linearRGB;fill:#262626;stroke:#262626;color-rendering:optimizeQuality;image-rendering:optimizeQuality;text-rendering:geometricPrecision"
       id="g1437">
      <text
         x="-14"
         xml:space="preserve"
         y="4.5"
         style="stroke:none"
         id="text1435">-1</text>
    </g>
    <g
       transform="translate(244.6667,552.4)"
       style="font-size:13.33329964px;font-family:SansSerif;color-interpolation:linearRGB;fill:#262626;stroke:#262626;color-rendering:optimizeQuality;image-rendering:optimizeQuality;text-rendering:geometricPrecision"
       id="g1441">
      <text
         x="-26"
         xml:space="preserve"
         y="4.5"
         style="stroke:none"
         id="text1439">-0.5</text>
    </g>
    <g
       transform="translate(244.6667,472.5)"
       style="font-size:13.33329964px;font-family:SansSerif;color-interpolation:linearRGB;fill:#262626;stroke:#262626;color-rendering:optimizeQuality;image-rendering:optimizeQuality;text-rendering:geometricPrecision"
       id="g1445">
      <text
         x="-9"
         xml:space="preserve"
         y="4.5"
         style="stroke:none"
         id="text1443">0</text>
    </g>
    <g
       transform="translate(244.6667,392.6)"
       style="font-size:13.33329964px;font-family:SansSerif;color-interpolation:linearRGB;fill:#262626;stroke:#262626;color-rendering:optimizeQuality;image-rendering:optimizeQuality;text-rendering:geometricPrecision"
       id="g1449">
      <text
         x="-22"
         xml:space="preserve"
         y="4.5"
         style="stroke:none"
         id="text1447">0.5</text>
    </g>
    <g
       transform="translate(244.6667,312.7)"
       style="font-size:13.33329964px;font-family:SansSerif;color-interpolation:linearRGB;fill:#262626;stroke:#262626;color-rendering:optimizeQuality;image-rendering:optimizeQuality;text-rendering:geometricPrecision"
       id="g1453">
      <text
         x="-9"
         xml:space="preserve"
         y="4.5"
         style="stroke:none"
         id="text1451">1</text>
    </g>
    <g
       transform="translate(244.6667,232.8)"
       style="font-size:13.33329964px;font-family:SansSerif;color-interpolation:linearRGB;fill:#262626;stroke:#262626;color-rendering:optimizeQuality;image-rendering:optimizeQuality;text-rendering:geometricPrecision"
       id="g1457">
      <text
         x="-22"
         xml:space="preserve"
         y="4.5"
         style="stroke:none"
         id="text1455">1.5</text>
    </g>
    <g
       transform="translate(244.6667,152.9)"
       style="font-size:13.33329964px;font-family:SansSerif;color-interpolation:linearRGB;fill:#262626;stroke:#262626;color-rendering:optimizeQuality;image-rendering:optimizeQuality;text-rendering:geometricPrecision"
       id="g1461">
      <text
         x="-9"
         xml:space="preserve"
         y="4.5"
         style="stroke:none"
         id="text1459">2</text>
    </g>
    <g
       transform="translate(244.6667,73)"
       style="font-size:13.33329964px;font-family:SansSerif;color-interpolation:linearRGB;fill:#262626;stroke:#262626;color-rendering:optimizeQuality;image-rendering:optimizeQuality;text-rendering:geometricPrecision"
       id="g1465">
      <text
         x="-22"
         xml:space="preserve"
         y="4.5"
         style="stroke:none"
         id="text1463">2.5</text>
    </g>
    <g
       transform="rotate(-90,348.58315,133.91645)"
       style="font-size:14.66670036px;font-family:SansSerif;color-interpolation:linearRGB;fill:#262626;stroke:#262626;color-rendering:optimizeQuality;image-rendering:optimizeQuality;text-rendering:geometricPrecision"
       id="g1469">
      <text
         x="-56.481419"
         xml:space="preserve"
         y="-64.171799"
         style="font-size:34.04288101px;stroke:none;stroke-width:0.95746696"
         id="text1467">ω (mm)</text>
    </g>
    <g
       style="color-interpolation:linearRGB;fill:#ff0000;stroke:#ff0000;stroke-width:3.68881893;stroke-linecap:butt;stroke-linejoin:round;stroke-miterlimit:10;stroke-dasharray:none;color-rendering:optimizeQuality;image-rendering:optimizeQuality;text-rendering:geometricPrecision"
       id="g1487">
      <path
         d="m 250,424.56 v 0 l 1.6432,-0.0203 1.6433,-0.0608 1.6433,-0.1011 1.6432,-0.1413 1.6433,-0.181 1.6432,-0.2203 1.6433,-0.2591 1.6432,-0.2972 1.6433,-0.3347 1.6433,-0.3715 1.6432,-0.4073 1.6433,-0.4424 1.6432,-0.4766 1.6433,-0.5097 1.6432,-0.542 1.6433,-0.5732 1.6432,-0.6034 1.6433,-0.6327 1.6432,-0.6608 1.6433,-0.6881 1.6433,-0.7142 1.6432,-0.7395 1.6433,-0.7637 1.6432,-0.787 1.6433,-0.8094 1.6432,-0.8308 1.6433,-0.8515 1.6432,-0.8711 1.6433,-0.8901 1.6432,-0.9081 1.6433,-0.9256 1.6432,-0.9421 1.6433,-0.9581 1.6433,-0.9733 1.6432,-0.9879 1.6433,-1.0018 1.6432,-1.0152 1.6433,-1.028 1.6432,-1.0403 1.6433,-1.0519 1.6432,-1.0633 1.6433,-1.0739 1.6432,-1.0843 1.6433,-1.0942 1.6433,-1.1036 1.6432,-1.1127 1.6433,-1.1214 1.6432,-1.1298 1.6433,-1.1378 1.6432,-1.1454 1.6433,-1.1529 1.6432,-1.1599 1.6433,-1.1667 1.6432,-1.1732 1.6433,-1.1796 1.6433,-1.1856 1.6432,-1.1914 1.6433,-1.197 1.6432,-1.2023 1.6433,-1.2076 1.6432,-1.2125 1.6433,-1.2173 1.6433,-1.222 1.6432,-1.2264 1.6433,-1.2307 1.6432,-1.2348 1.6433,-1.2389 1.6432,-1.2427 1.6433,-1.2464 1.6432,-1.2501 1.6433,-1.2535 1.6432,-1.2569 1.6433,-1.2601 1.6433,-1.2633 1.6432,-1.2662 1.6433,-1.2693 1.6432,-1.272 1.6433,-1.2748 1.6432,-1.2775 1.6433,-1.2801 1.6432,-1.2825 1.6433,-1.285 1.6432,-1.2873 1.6433,-1.2896 1.6432,-1.2917 1.6433,-1.294 1.6433,-1.296 1.6432,-1.298 1.6433,-1.2999 1.6432,-1.3019 1.6433,-1.3037 1.6432,-1.3055 1.6433,-1.3073 1.6432,-1.3089 1.6433,-1.3106 1.6432,-1.3121 1.6433,-1.3138 1.6433,-1.3152 1.6432,-1.3167 v 0 l 5.368,0.5112 5.368,0.4958 5.3679,0.4801 5.368,0.4645 5.3679,0.4485 5.368,0.4324 5.368,0.4163 5.3679,0.3999 5.368,0.3834 5.3679,0.3668 5.368,0.3501 5.368,0.3331 5.368,0.3162 5.3679,0.2991 5.368,0.2819 5.3679,0.2646 5.368,0.2471 5.368,0.2297 5.3679,0.212 5.368,0.1944 5.368,0.1766 5.368,0.1588 5.3679,0.1409 5.368,0.123 5.3679,0.105 5.368,0.0869 5.3679,0.069 5.368,0.0508 5.368,0.0327 5.368,0.0146 5.3679,-0.004 5.368,-0.0216 5.368,-0.0398 5.368,-0.0578 5.3679,-0.076 5.368,-0.0939 5.3679,-0.112 5.368,-0.1299 5.3679,-0.1479 5.368,-0.1657 5.368,-0.1835 5.3679,-0.2012 5.368,-0.2189 5.368,-0.2364 5.368,-0.2539 5.3679,-0.2713 5.368,-0.2886 5.3679,-0.3057 5.368,-0.3228 5.368,-0.3398 5.368,-0.3565 5.3679,-0.3733 5.368,-0.3898 5.368,-0.4063 5.3679,-0.4225 5.368,-0.4388 5.3679,-0.4546 5.368,-0.4706 5.368,-0.4862 5.3679,-0.5018 5.368,-0.5171 5.3679,-0.5324 5.368,-0.5474 5.368,-0.5624 5.3679,-0.577 5.368,-0.5915 5.368,-0.606 5.368,-0.6201 5.3679,-0.6341 5.368,-0.648 5.3679,-0.6617 5.368,-0.6752 5.3679,-0.6885 5.368,-0.7016 5.368,-0.7146 5.368,-0.7273 5.368,-0.74 5.3679,-0.7523 5.368,-0.7647 5.3679,-0.7767 5.368,-0.7886 5.3679,-0.8003 5.368,-0.8119 5.368,-0.8232 5.368,-0.8344 5.3679,-0.8455 5.368,-0.8563 5.368,-0.867 5.368,-0.8775 5.3679,-0.8879 5.368,-0.8981 5.3679,-0.9081 5.368,-0.918 5.368,-0.9276 5.3679,-0.9373 5.368,-0.9466 5.368,-0.9559 5.368,-0.9649 5.3679,-0.974 v 0 l 7.4494,2.1832 7.4494,2.1656 7.4494,2.1473 7.4495,2.1284 7.4494,2.1087 7.4494,2.0882 7.4494,2.067 7.4495,2.0448 7.4494,2.0219 7.4494,1.998 7.4494,1.9733 7.4495,1.9475 7.4493,1.9207 7.4495,1.8929 7.4494,1.8639 7.4494,1.8339 7.4495,1.8027 7.4493,1.7703 7.4495,1.7366 7.4494,1.7017 7.4495,1.6654 7.4493,1.6277 7.4494,1.5887 7.4496,1.5482 7.4493,1.5063 7.4495,1.4629 7.4493,1.4179 7.4495,1.3714 7.4494,1.3234 7.4494,1.2737 7.4494,1.2226 7.4495,1.1697 7.4494,1.1155 7.4494,1.0595 7.4495,1.0021 7.4493,0.9432 7.4495,0.8828 7.4493,0.821 7.4496,0.7578 7.4493,0.6934 7.4494,0.6278 7.4495,0.561 7.4494,0.4932 7.4495,0.4245 7.4493,0.355 7.4495,0.2849 7.4494,0.2141 7.4494,0.143 7.4494,0.0716 h 7.4495 l 7.4493,-0.0716 7.4495,-0.143 7.4494,-0.2141 7.4494,-0.2849 7.4495,-0.355 7.4493,-0.4245 7.4496,-0.4932 7.4493,-0.561 7.4494,-0.6278 7.4494,-0.6934 7.4495,-0.7578 7.4495,-0.821 7.4493,-0.8828 7.4494,-0.9432 7.4495,-1.0021 7.4494,-1.0595 7.4494,-1.1155 7.4494,-1.1697 7.4494,-1.2226 7.4495,-1.2737 7.4494,-1.3234 7.4494,-1.3714 7.4495,-1.4179 7.4493,-1.4629 7.4495,-1.5063 7.4494,-1.5482 7.4494,-1.5887 7.4494,-1.6277 7.4494,-1.6654 7.4496,-1.7017 7.4493,-1.7366 7.4494,-1.7703 7.4494,-1.8027 7.4495,-1.8339 7.4494,-1.8639 7.4494,-1.8929 7.4494,-1.9207 7.4495,-1.9475 7.4494,-1.9733 7.4494,-1.998 7.4495,-2.0219 7.4493,-2.0448 7.4495,-2.067 7.4493,-2.0882 7.4496,-2.1087 7.4493,-2.1284 7.4494,-2.1473 7.4496,-2.1656 7.4493,-2.1832"
         style="fill:none;fill-rule:evenodd;stroke-width:3.68881893;stroke-miterlimit:10;stroke-dasharray:none"
         id="path1483"
         inkscape:connector-curvature="0" />
      <path
         d="m 250,520.44 v 0 l 1.6432,0.0203 1.6433,0.0608 1.6433,0.1011 1.6432,0.1413 1.6433,0.181 1.6432,0.2203 1.6433,0.259 1.6432,0.2973 1.6433,0.3347 1.6433,0.3714 1.6432,0.4075 1.6433,0.4423 1.6432,0.4766 1.6433,0.5097 1.6432,0.542 1.6433,0.5732 1.6432,0.6034 1.6433,0.6327 1.6432,0.6609 1.6433,0.688 1.6433,0.7142 1.6432,0.7395 1.6433,0.7637 1.6432,0.7871 1.6433,0.8093 1.6432,0.8309 1.6433,0.8513 1.6432,0.8712 1.6433,0.8901 1.6432,0.9082 1.6433,0.9255 1.6432,0.9421 1.6433,0.9581 1.6433,0.9733 1.6432,0.9879 1.6433,1.0018 1.6432,1.0152 1.6433,1.028 1.6432,1.0403 1.6433,1.052 1.6432,1.0631 1.6433,1.074 1.6432,1.0843 1.6433,1.0942 1.6433,1.1036 1.6432,1.1127 1.6433,1.1214 1.6432,1.1298 1.6433,1.1378 1.6432,1.1454 1.6433,1.1528 1.6432,1.16 1.6433,1.1667 1.6432,1.1733 1.6433,1.1795 1.6433,1.1856 1.6432,1.1914 1.6433,1.197 1.6432,1.2023 1.6433,1.2076 1.6432,1.2125 1.6433,1.2173 1.6433,1.222 1.6432,1.2264 1.6433,1.2307 1.6432,1.2348 1.6433,1.2389 1.6432,1.2427 1.6433,1.2464 1.6432,1.2501 1.6433,1.2535 1.6432,1.2569 1.6433,1.2601 1.6433,1.2633 1.6432,1.2663 1.6433,1.2692 1.6432,1.272 1.6433,1.2749 1.6432,1.2774 1.6433,1.2801 1.6432,1.2825 1.6433,1.285 1.6432,1.2872 1.6433,1.2897 1.6432,1.2918 1.6433,1.2939 1.6433,1.296 1.6432,1.2979 1.6433,1.3 1.6432,1.3019 1.6433,1.3037 1.6432,1.3055 1.6433,1.3073 1.6432,1.3089 1.6433,1.3106 1.6432,1.3122 1.6433,1.3137 1.6433,1.3152 1.6432,1.3167 v 0 l 5.368,-0.5112 5.368,-0.4958 5.3679,-0.4801 5.368,-0.4645 5.3679,-0.4484 5.368,-0.4325 5.368,-0.4163 5.3679,-0.3999 5.368,-0.3834 5.3679,-0.3668 5.368,-0.3501 5.368,-0.3332 5.368,-0.3161 5.3679,-0.2992 5.368,-0.2818 5.3679,-0.2646 5.368,-0.2471 5.368,-0.2297 5.3679,-0.212 5.368,-0.1944 5.368,-0.1766 5.368,-0.1588 5.3679,-0.1409 5.368,-0.1229 5.3679,-0.1051 5.368,-0.087 5.3679,-0.0689 5.368,-0.0507 5.368,-0.0328 5.368,-0.0146 5.3679,0.003 5.368,0.0216 5.368,0.0398 5.368,0.0578 5.3679,0.076 5.368,0.0939 5.3679,0.112 5.368,0.1299 5.3679,0.1479 5.368,0.1657 5.368,0.1835 5.3679,0.2012 5.368,0.2189 5.368,0.2364 5.368,0.254 5.3679,0.2712 5.368,0.2886 5.3679,0.3057 5.368,0.3228 5.368,0.3398 5.368,0.3566 5.3679,0.3732 5.368,0.3898 5.368,0.4063 5.3679,0.4225 5.368,0.4388 5.3679,0.4547 5.368,0.4705 5.368,0.4863 5.3679,0.5017 5.368,0.5172 5.3679,0.5323 5.368,0.5474 5.368,0.5624 5.3679,0.577 5.368,0.5915 5.368,0.6059 5.368,0.6202 5.3679,0.6342 5.368,0.648 5.3679,0.6616 5.368,0.6752 5.3679,0.6884 5.368,0.7017 5.368,0.7145 5.368,0.7274 5.368,0.74 5.3679,0.7524 5.368,0.7646 5.3679,0.7767 5.368,0.7886 5.3679,0.8003 5.368,0.8119 5.368,0.8232 5.368,0.8344 5.3679,0.8455 5.368,0.8563 5.368,0.867 5.368,0.8776 5.3679,0.8878 5.368,0.8981 5.3679,0.9081 5.368,0.918 5.368,0.9276 5.3679,0.9373 5.368,0.9466 5.368,0.9559 5.368,0.965 5.3679,0.9739 v 0 l 7.4494,-2.1832 7.4494,-2.1656 7.4494,-2.1473 7.4495,-2.1285 7.4494,-2.1086 7.4494,-2.0882 7.4494,-2.067 7.4495,-2.0448 7.4494,-2.0219 7.4494,-1.998 7.4494,-1.9733 7.4495,-1.9475 7.4493,-1.9206 7.4495,-1.8929 7.4494,-1.864 7.4494,-1.8339 7.4495,-1.8027 7.4493,-1.7703 7.4495,-1.7366 7.4494,-1.7017 7.4495,-1.6654 7.4493,-1.6277 7.4494,-1.5887 7.4496,-1.5482 7.4493,-1.5063 7.4495,-1.4629 7.4493,-1.4179 7.4495,-1.3714 7.4494,-1.3233 7.4494,-1.2738 7.4494,-1.2226 7.4495,-1.1697 7.4494,-1.1155 7.4494,-1.0595 7.4495,-1.0021 7.4493,-0.9432 7.4495,-0.8828 7.4493,-0.821 7.4496,-0.7578 7.4493,-0.6934 7.4494,-0.6278 7.4495,-0.561 7.4494,-0.4932 7.4495,-0.4245 7.4493,-0.355 7.4495,-0.2849 7.4494,-0.2141 7.4494,-0.143 7.4494,-0.0715 h 7.4495 l 7.4493,0.0715 7.4495,0.143 7.4494,0.2141 7.4494,0.2849 7.4495,0.355 7.4493,0.4245 7.4496,0.4932 7.4493,0.561 7.4494,0.6278 7.4494,0.6934 7.4495,0.7578 7.4495,0.821 7.4493,0.8828 7.4494,0.9432 7.4495,1.0021 7.4494,1.0595 7.4494,1.1155 7.4494,1.1697 7.4494,1.2226 7.4495,1.2738 7.4494,1.3233 7.4494,1.3714 7.4495,1.4179 7.4493,1.4629 7.4495,1.5063 7.4494,1.5482 7.4494,1.5887 7.4494,1.6277 7.4494,1.6654 7.4496,1.7017 7.4493,1.7366 7.4494,1.7703 7.4494,1.8027 7.4495,1.8339 7.4494,1.864 7.4494,1.8929 7.4494,1.9206 7.4495,1.9475 7.4494,1.9733 7.4494,1.998 7.4495,2.0219 7.4493,2.0448 7.4495,2.067 7.4493,2.0882 7.4496,2.1086 7.4493,2.1285 7.4494,2.1473 7.4496,2.1656 7.4493,2.1832"
         style="fill:none;fill-rule:evenodd;stroke-width:3.68881893;stroke-miterlimit:10;stroke-dasharray:none"
         id="path1485"
         inkscape:connector-curvature="0" />
    </g>
    <g
       style="color-interpolation:linearRGB;fill:none;stroke:#383838;stroke-width:2;stroke-linecap:butt;stroke-linejoin:bevel;stroke-miterlimit:1;stroke-dasharray:2, 4;stroke-dashoffset:0;stroke-opacity:1;color-rendering:optimizeQuality;image-rendering:optimizeQuality;text-rendering:geometricPrecision"
       id="g1493">
      <path
         style="fill:none;fill-rule:evenodd;stroke:#383838;stroke-width:2;stroke-linecap:butt;stroke-linejoin:miter;stroke-miterlimit:1;stroke-dasharray:2, 4;stroke-dashoffset:0;stroke-opacity:1"
         d="M 413.52886,642.10552 V 872"
         inkscape:connector-curvature="0"
         id="path13048" />
    </g>
    <g
       transform="matrix(2.5792926,0,0,2.5792926,452.19895,273.53758)"
       style="font-size:13.33329964px;font-family:SansSerif;color-interpolation:linearRGB;color-rendering:optimizeQuality;image-rendering:optimizeQuality;text-rendering:geometricPrecision"
       id="g1497">
      <text
         x="0"
         xml:space="preserve"
         y="4.5"
         style="stroke:none"
         id="text1495">f<tspan
   style="font-size:64.99999762%;baseline-shift:sub"
   id="tspan13042">1</tspan></text>
    </g>
    <g
       style="color-interpolation:linearRGB;fill:#262626;stroke:#262626;stroke-width:0.66670001;stroke-linejoin:round;color-rendering:optimizeQuality;image-rendering:optimizeQuality;text-rendering:geometricPrecision"
       id="g1335">
      <line
         y2="872"
         style="fill:none"
         x1="250"
         x2="1738"
         y1="872"
         id="line1299" />
      <line
         y2="857.12"
         style="fill:none"
         x1="250"
         x2="250"
         y1="872"
         id="line1303" />
      <line
         y2="857.12"
         style="fill:none"
         x1="462.57141"
         x2="462.57141"
         y1="872"
         id="line1305" />
      <line
         y2="857.12"
         style="fill:none"
         x1="675.14288"
         x2="675.14288"
         y1="872"
         id="line1307" />
      <line
         y2="857.12"
         style="fill:none"
         x1="887.71429"
         x2="887.71429"
         y1="872"
         id="line1309" />
      <line
         y2="857.12"
         style="fill:none"
         x1="1100.2858"
         x2="1100.2858"
         y1="872"
         id="line1311" />
      <line
         y2="857.12"
         style="fill:none"
         x1="1312.8572"
         x2="1312.8572"
         y1="872"
         id="line1313" />
      <line
         y2="857.12"
         style="fill:none"
         x1="1525.4286"
         x2="1525.4286"
         y1="872"
         id="line1315" />
      <line
         y2="857.12"
         style="fill:none"
         x1="1738"
         x2="1738"
         y1="872"
         id="line1317" />
      <line
         y2="87.879997"
         style="fill:none"
         x1="250"
         x2="250"
         y1="73"
         id="line1319" />
    </g>
    <g
       transform="matrix(2.48538,0,0,2.48538,983.65629,255.01825)"
       style="font-size:13.33329964px;font-family:SansSerif;color-interpolation:linearRGB;color-rendering:optimizeQuality;image-rendering:optimizeQuality;text-rendering:geometricPrecision"
       id="g1501">
      <text
         x="0"
         xml:space="preserve"
         y="4.5"
         style="stroke:none"
         id="text1499">f<tspan
   style="font-size:64.99999762%;baseline-shift:sub"
   id="tspan13044">2</tspan></text>
    </g>
    <g
       style="color-interpolation:sRGB;fill:#ffffff;stroke:#ffffff;color-rendering:optimizeSpeed;image-rendering:optimizeSpeed;shape-rendering:crispEdges;text-rendering:optimizeSpeed"
       id="g1529"
       transform="matrix(2.0504484,0,0,3.6034823,-1834.4746,-218.34234)">
      <path
         style="stroke:none"
         d="M 1727,134 V 84 h -144 v 50 z"
         id="path1527"
         inkscape:connector-curvature="0" />
    </g>
    <g
       transform="matrix(2.0504484,0,0,2.0504484,1507.7563,117.82943)"
       style="font-family:SansSerif;color-interpolation:linearRGB;color-rendering:optimizeQuality;image-rendering:optimizeQuality;text-rendering:geometricPrecision"
       id="g1533">
      <text
         x="0"
         xml:space="preserve"
         y="4.5"
         style="stroke:none"
         id="text1531">raggio 1/e²</text>
    </g>
    <g
       transform="matrix(2.0504484,0,0,2.0504484,1507.7563,207.39333)"
       style="font-family:SansSerif;color-interpolation:linearRGB;color-rendering:optimizeQuality;image-rendering:optimizeQuality;text-rendering:geometricPrecision"
       id="g1549">
      <text
         x="0"
         xml:space="preserve"
         y="4.5"
         style="stroke:none"
         id="text1547">lenti sottili</text>
    </g>
    <g
       style="color-interpolation:linearRGB;fill:#262626;stroke:#262626;stroke-width:0.66670001;stroke-linecap:butt;color-rendering:optimizeQuality;image-rendering:optimizeQuality;text-rendering:geometricPrecision"
       id="g1557"
       transform="matrix(2.0472426,0,0,3.6748385,-1829.169,-224.10545)">
      <path
         d="M 1583,134 V 84 h 144 v 50 z"
         style="fill:none;fill-rule:evenodd"
         id="path1555"
         inkscape:connector-curvature="0" />
    </g>
    <g
       style="color-interpolation:linearRGB;fill:#ff0000;stroke:#ff0000;stroke-width:3.68926764;stroke-linecap:butt;stroke-linejoin:round;stroke-miterlimit:10;stroke-dasharray:none;color-rendering:optimizeQuality;image-rendering:optimizeQuality;text-rendering:geometricPrecision"
       id="g13038"
       transform="matrix(0.7454054,0,0,0.7454054,716.92417,-325.13718)">
      <path
         style="fill:none;fill-rule:evenodd;stroke-width:3.68926764;stroke-miterlimit:10;stroke-dasharray:none"
         d="m 951.16385,569.94347 c 18.53081,8.96739 37.74009,16.90977 57.18815,14.30293 14.4815,-1.81461 28.6028,-8.05794 42.4983,-14.80071"
         id="path13034"
         inkscape:connector-curvature="0" />
      <path
         style="fill:none;fill-rule:evenodd;stroke-width:3.68926764;stroke-miterlimit:10;stroke-dasharray:none"
         d="m 954.86513,623.29108 c 17.66996,-8.34727 36.02785,-15.20039 54.50387,-12.39599 14.1275,1.98363 27.9116,8.08069 41.4813,14.66946"
         id="path13036"
         inkscape:connector-curvature="0"
         sodipodi:nodetypes="ccc" />
    </g>
    <g
       transform="translate(899.32832)"
       style="color-interpolation:linearRGB;fill:none;stroke:#383838;stroke-width:2;stroke-linecap:butt;stroke-linejoin:bevel;stroke-miterlimit:1;stroke-dasharray:2, 4;stroke-dashoffset:0;stroke-opacity:1;color-rendering:optimizeQuality;image-rendering:optimizeQuality;text-rendering:geometricPrecision"
       id="g13056">
      <path
         style="fill:none;fill-rule:evenodd;stroke:#383838;stroke-width:2;stroke-linecap:butt;stroke-linejoin:miter;stroke-miterlimit:1;stroke-dasharray:2, 4;stroke-dashoffset:0;stroke-opacity:1"
         d="M 413.52886,364.76957 V 872"
         inkscape:connector-curvature="0"
         id="path13054"
         sodipodi:nodetypes="cc" />
    </g>
  </g>
  <g
     style="display:inline;opacity:1;enable-background:new"
     i:rgbTrio="#4F008000FFFF"
     i:dimmedPercent="50"
     i:layer="yes"
     id="g3746"
     transform="matrix(15.433001,0,0,15.433001,336.70758,286.34398)">
    <linearGradient
       y2="0.37450001"
       x2="4.6269999"
       y1="23.0518"
       x1="4.6269999"
       gradientUnits="userSpaceOnUse"
       id="linearGradient12962">
      <stop
         id="stop12956"
         style="stop-color:#89A4B6"
         offset="0.0056" />
      <stop
         id="stop12958"
         style="stop-color:#FFFFFF"
         offset="0.5" />
      <stop
         id="stop12960"
         style="stop-color:#89A4B6"
         offset="1" />
      <a:midPointStop
         style="stop-color:#89A4B6"
         offset="0.0056" />
      <a:midPointStop
         style="stop-color:#89A4B6"
         offset="0.5" />
      <a:midPointStop
         style="stop-color:#FFFFFF"
         offset="0.5" />
      <a:midPointStop
         style="stop-color:#FFFFFF"
         offset="0.5" />
      <a:midPointStop
         style="stop-color:#89A4B6"
         offset="1" />
    </linearGradient>
    <path
       id="path3739"
       d="M 5.2796078,0.375 H 4.6758484 c -1.035,2.585 -1.709,6.695 -1.709,11.339 0,4.644 0.674,8.754 1.709,11.338 h 0.6037594 c 1.037,-2.584 1.709,-6.694 1.709,-11.338 0,-4.644 -0.674,-8.754 -1.709,-11.339 z"
       i:knockout="Off"
       style="fill:url(#linearGradient3754);fill-opacity:1;stroke:#000000;stroke-width:0.12244953;stroke-miterlimit:10;stroke-dasharray:none"
       inkscape:connector-curvature="0"
       sodipodi:nodetypes="ccsccsc" />
  </g>
  <g
     transform="matrix(15.433001,0,0,15.433001,866.70758,286.34398)"
     id="g13016"
     i:layer="yes"
     i:dimmedPercent="50"
     i:rgbTrio="#4F008000FFFF"
     style="display:inline;opacity:1;enable-background:new">
    <linearGradient
       id="linearGradient13012"
       gradientUnits="userSpaceOnUse"
       x1="4.6269999"
       y1="23.0518"
       x2="4.6269999"
       y2="0.37450001">
      <stop
         offset="0.0056"
         style="stop-color:#89A4B6"
         id="stop13006" />
      <stop
         offset="0.5"
         style="stop-color:#FFFFFF"
         id="stop13008" />
      <stop
         offset="1"
         style="stop-color:#89A4B6"
         id="stop13010" />
      <a:midPointStop
         offset="0.0056"
         style="stop-color:#89A4B6" />
      <a:midPointStop
         offset="0.5"
         style="stop-color:#89A4B6" />
      <a:midPointStop
         offset="0.5"
         style="stop-color:#FFFFFF" />
      <a:midPointStop
         offset="0.5"
         style="stop-color:#FFFFFF" />
      <a:midPointStop
         offset="1"
         style="stop-color:#89A4B6" />
    </linearGradient>
    <path
       sodipodi:nodetypes="ccsccsc"
       inkscape:connector-curvature="0"
       style="fill:url(#linearGradient13018);fill-opacity:1;stroke:#000000;stroke-width:0.12244953;stroke-miterlimit:10;stroke-dasharray:none"
       i:knockout="Off"
       d="M 5.2796078,-1.5397435 H 4.6758484 c -1.035,2.585 -1.709,8.6097435 -1.709,13.2537435 0,4.644 0.674,11.539082 1.709,14.123082 h 0.6037594 c 1.037,-2.584 1.709,-9.479082 1.709,-14.123082 0,-4.644 -0.674,-10.6687435 -1.709,-13.2537435 z"
       id="path13014" />
  </g>
  <g
     style="display:inline;opacity:1;enable-background:new"
     i:rgbTrio="#4F008000FFFF"
     i:dimmedPercent="50"
     i:layer="yes"
     id="g13030"
     transform="matrix(6.2426234,0,0,3.3746586,1427.3363,164.49125)">
    <linearGradient
       y2="0.37450001"
       x2="4.6269999"
       y1="23.0518"
       x1="4.6269999"
       gradientUnits="userSpaceOnUse"
       id="linearGradient13026">
      <stop
         id="stop13020"
         style="stop-color:#89A4B6"
         offset="0.0056" />
      <stop
         id="stop13022"
         style="stop-color:#FFFFFF"
         offset="0.5" />
      <stop
         id="stop13024"
         style="stop-color:#89A4B6"
         offset="1" />
      <a:midPointStop
         style="stop-color:#89A4B6"
         offset="0.0056" />
      <a:midPointStop
         style="stop-color:#89A4B6"
         offset="0.5" />
      <a:midPointStop
         style="stop-color:#FFFFFF"
         offset="0.5" />
      <a:midPointStop
         style="stop-color:#FFFFFF"
         offset="0.5" />
      <a:midPointStop
         style="stop-color:#89A4B6"
         offset="1" />
    </linearGradient>
    <path
       id="path13028"
       d="M 5.2796078,-1.5397435 H 4.6758484 c -1.035,2.585 -1.709,8.6097435 -1.709,13.2537435 0,4.644 0.674,11.539082 1.709,14.123082 h 0.6037594 c 1.037,-2.584 1.709,-9.479082 1.709,-14.123082 0,-4.644 -0.674,-10.6687435 -1.709,-13.2537435 z"
       i:knockout="Off"
       style="fill:url(#linearGradient13032);fill-opacity:1;stroke:#000000;stroke-width:0.12244953;stroke-miterlimit:10;stroke-dasharray:none"
       inkscape:connector-curvature="0"
       sodipodi:nodetypes="ccsccsc" />
  </g>
</svg>
